{
    "id": "com.modxvm.xfw.filewatcher",
    "name": "XFW filewatcher",
    "description": "XFW filewatcher module",

    "version": "XFW_VERSION",
    "dependencies": ["com.modxvm.xfw.native"],

    "url": "https://modxvm.com/",
    "url_update": "https://modxvm.com/",

    "wot_version_min": "WOT_VERSION",
    "wot_version_exactmatch": false,

    "features": ["native", "python"],
    "architecture": ["32bit", "64bit"]
}
